module gitlab.com/dhnikolas/entities-http-proto

go 1.17

require (
	github.com/envoyproxy/protoc-gen-validate v0.6.2
	github.com/golang/protobuf v1.5.2
	github.com/grpc-ecosystem/grpc-gateway/v2 v2.6.0
	google.golang.org/genproto v0.0.0-20211028162531-8db9c33dc351
	google.golang.org/grpc v1.41.0
	google.golang.org/protobuf v1.27.1
)

require (
	golang.org/x/net v0.0.0-20210813160813-60bc85c4be6d // indirect
	golang.org/x/sys v0.0.0-20210816183151-1e6c022a8912 // indirect
	golang.org/x/text v0.3.7 // indirect
)
